<?xml version="1.0" encoding="utf-8"?>
<!-- Generator: Adobe Illustrator 22.1.0, SVG Export Plug-In . SVG Version: 6.00 Build 0)  -->
<svg version="1.1" id="Layer" xmlns="http://www.w3.org/2000/svg" xmlns:xlink="http://www.w3.org/1999/xlink" x="0px" y="0px"
	 viewBox="0 0 512 512" style="enable-background:new 0 0 512 512;" xml:space="preserve">
<polygon points="128,448 32,448 32,352 "/>
<rect x="45.7" y="140.1" transform="matrix(0.7071 -0.7071 0.7071 0.7071 -67.4113 253.2548)" width="452.5" height="135.8"/>
<path d="M32,512v-32h352v32H32z"/>
</svg>
